[
    {
        "age": 0, 
        "id": "kh-7-2", 
        "imageUrl": "img/kasvihuoneet/7_2_m.jpg", 
        "name": "Kasvihuone 7,2m", 
        "snippet": "450e. Kasvihuone kompaktiin tilaan.",
		"kuvaus": "Myydään uusia 7,2m² kokoisia kasvihuoneita. Kasvihuoneessa kaksi liukuovea, kaksi kattoluukkua, alumiinirunko ja -sokkeli. Seinät ja katto ovat polykarbonaattikennolevyä. Hintaan sisältyy myös automaattiavaajat (2kpl) ja alumiinihylly (1kpl)."
    }, 
    {
        "age": 1, 
        "id": "kh-16-5", 
        "imageUrl": "img/kasvihuoneet/16_5_m.jpg", 
        "name": "Kasvihuone 16,5m", 
		"hinta": "1200",
        "snippet": "1200e. Isolle pihalle tai mökille .",
		"kuvaus": "Myynnissä myös 16,5m² kokoisia kasvihuoneita. Neljällä kattoluukulla. Mukaan myös automaattiavaajat (4kpl) ja aluumihyllyjä (4kpl)."		
    },
    {
        "age": 2, 
        "id": "kh-8-7", 
        "imageUrl": "img/kasvihuoneet/8_7_m.jpg", 
        "name": "Kasvihuone 8,7m", 
        "snippet": "1200e. Hieno huvilamalli.",
		"kuvaus": "Seinät kirkasta polykarbonaattilevyä ja katto polykarbonaattikennolevyä. Luonnonvalkoinen alumiinirunko ja -sokkeli. Viherhuoneessa avattavat tuuletusluukut."		
    }
   
]
